Data Cleaning_SF Traffic
…
Rows: 31995 Columns: 86
── Column specification ────────────────────────────────────────────────────────
Delimiter: ","
chr  (63): geocode_source, geocode_location, collision_datetime, collision_d...
dbl  (22): ...1, unique_id, cnn_intrsctn_fkey, cnn_sgmt_fkey, case_id_pkey, ...
time  (1): collision_time

ℹ Use `spec()` to retrieve the full column specification for this data.
ℹ Specify the column types or set `show_col_types = FALSE` to quiet this message.

print(traffic_data)

# A tibble: 31,995 × 86
     ...1 unique_id cnn_intrsctn_fkey cnn_sgmt_fkey case_id_pkey tb_latitude
    <dbl>     <dbl>             <dbl>         <dbl>        <dbl>       <dbl>
 1  30861    248271          33348000      10256000    190000275        37.7
 2  24117     97475          25934000            NA    190000695        37.8
 3  44458     97470          25934000            NA    190000695        37.8
 4  22911     96463          33287000       2480201    190001897        37.7
 5  30248     96465          26434000       6624000    190001944        37.8
 6  30726     96459          26434000       6624000    190001944        37.8
 7  91614     96337          24189000      10659000    190002180        37.8
 8 104245     96334          24189000      10659000    190002180        37.8
 9  95651     96172          21135000       3316000    190002726        37.7
10 123048     96173          21135000       3316000    190002726        37.7
# ℹ 31,985 more rows
# ℹ 80 more variables: tb_longitude <dbl>, geocode_source <chr>,
#   geocode_location <chr>, collision_datetime <chr>, collision_date <chr>,
#   collision_time <time>, accident_year <dbl>, month <chr>, day_of_week <chr>,
#   time_cat <chr>, juris <dbl>, officer_id <chr>, reporting_district <chr>,
#   beat_number <chr>, primary_rd <chr>, secondary_rd <chr>, distance <dbl>,
#   direction <chr>, weather_1 <chr>, weather_2 <chr>, …
…
